{
  "score": 5.0,
  "md5hash": "7d5b4c2e37507ec708b2bbe555002b7d",
  "results": [{
    "desc": "application is debuggable",
    "sourceStmt": "",
    "custom": "",
    "vulnKind": 3,
    "destMethod": "",
    "paths": [],
    "destStmt": "",
    "sourceMethod": ""
  }]
}