Application Name: WebViewInterceptRequest-MITM-Lean-benign.apk
Uses Permissions: android.permission.INTERNET

Component edu.ksu.cs.benign.MainActivity
  Component type: activity
  Exported: true
  Dynamic Registered: false
  Required Permission: 
  IntentFilters:
    IntentFilter:(Actions:["android.intent.action.MAIN"],Categories:["android.intent.category.LAUNCHER"])

  Inter-component communication (ICC) Result:



Taint analysis result:
  Sources found:
    <Descriptors: entrypoint_source: Ledu/ksu/cs/benign/MainActivity;.envMain:(Landroid/content/Intent;)V>
    <Descriptors: entrypoint_source: Ledu/ksu/cs/benign/MainActivity;.envMain:(Landroid/content/Intent;)V>
  Sinks found:
  Discovered taint paths are listed below:
