Application Name: TaskAffinity-LauncherActivity-PhishingAttack-Lean-benign.apk
Uses Permissions: 

Component edu.ksu.cs.benign.B2
  Component type: activity
  Exported: false
  Dynamic Registered: false
  Required Permission: 
  IntentFilters:

  Inter-component communication (ICC) Result:


Component edu.ksu.cs.benign.BenignMain
  Component type: activity
  Exported: true
  Dynamic Registered: false
  Required Permission: 
  IntentFilters:
    IntentFilter:(Actions:["android.intent.action.MAIN"],Categories:["android.intent.category.LAUNCHER"])

  Inter-component communication (ICC) Result:
    ICC call details are listed below:
      Caller Procedure: Landroid/app/Activity;.startActivity:(Landroid/content/Intent;)V
      Caller Context: (1.onClick,L10cbaa)(BenignMain.envMain,L40)
      Outgoing Intents via this call:
        Intent:
          Component Names:
            edu.ksu.cs.benign.B2
          Explicit: true
          Precise: true
          ICC Targets:
            edu.ksu.cs.benign.B2


Taint analysis result:
  Sources found:
  Sinks found:
  Discovered taint paths are listed below:
