Application Name: TaskAffinityAndReparenting-PhishingAndDoSAttack-Lean-benign.apk
Uses Permissions: 

Component edu.ksu.cs.benign.LoginActivity
  Component type: activity
  Exported: true
  Dynamic Registered: false
  Required Permission: 
  IntentFilters:
    IntentFilter:(Actions:["android.intent.action.MAIN"],Categories:["android.intent.category.LAUNCHER"])

  Inter-component communication (ICC) Result:
    ICC call details are listed below:
      Caller Procedure: Landroid/support/v4/app/FragmentActivity;.startActivityForResult:(Landroid/content/Intent;I)V
      Caller Context: (1.onClick,L0f1dba)(LoginActivity.envMain,L31)
      Outgoing Intents via this call:
        Intent:
          Actions:
            android.media.action.IMAGE_CAPTURE
          Explicit: true
          Precise: true
    ICC call details are listed below:
      Caller Procedure: Landroid/support/v4/app/FragmentActivity;.startActivityForResult:(Landroid/content/Intent;I)V
      Caller Context: (2.onClick,L0f1e80)(LoginActivity.envMain,L21)
      Outgoing Intents via this call:
        Intent:
          Component Names:
            edu.ksu.cs.benign.ImageEditor
          Actions:
            Home
          Explicit: true
          Precise: true
          ICC Targets:
            edu.ksu.cs.benign.ImageEditor
    ICC call details are listed below:
      Caller Procedure: Landroid/app/Activity;.startActivity:(Landroid/content/Intent;)V
      Caller Context: (1.onClick,L0f1f12)(LoginActivity.envMain,L26)
      Outgoing Intents via this call:
        Intent:
          Component Names:
            edu.ksu.cs.benign.HomeActivity
          Explicit: true
          Precise: true
          ICC Targets:
            edu.ksu.cs.benign.HomeActivity

Component edu.ksu.cs.benign.HomeActivity
  Component type: activity
  Exported: false
  Dynamic Registered: false
  Required Permission: 
  IntentFilters:

  Inter-component communication (ICC) Result:
    ICC call details are listed below:
      Caller Procedure: Landroid/app/Activity;.startActivity:(Landroid/content/Intent;)V
      Caller Context: (1.onClick,L0f1f12)(HomeActivity.env,L72)
      Outgoing Intents via this call:
        Intent:
          Component Names:
            edu.ksu.cs.benign.HomeActivity
          Explicit: true
          Precise: true
          ICC Targets:
            edu.ksu.cs.benign.HomeActivity
    ICC call details are listed below:
      Caller Procedure: Landroid/support/v4/app/FragmentActivity;.startActivityForResult:(Landroid/content/Intent;I)V
      Caller Context: (1.onClick,L0f1dba)(HomeActivity.env,L77)
      Outgoing Intents via this call:
        Intent:
          Actions:
            android.media.action.IMAGE_CAPTURE
          Explicit: true
          Precise: true
    ICC call details are listed below:
      Caller Procedure: Landroid/support/v4/app/FragmentActivity;.startActivityForResult:(Landroid/content/Intent;I)V
      Caller Context: (2.onClick,L0f1e80)(HomeActivity.env,L62)
      Outgoing Intents via this call:
        Intent:
          Component Names:
            edu.ksu.cs.benign.ImageEditor
          Actions:
            Home
          Explicit: true
          Precise: true
          ICC Targets:
            edu.ksu.cs.benign.ImageEditor

Component edu.ksu.cs.benign.ImageEditor
  Component type: activity
  Exported: false
  Dynamic Registered: false
  Required Permission: 
  IntentFilters:

  Inter-component communication (ICC) Result:



Taint analysis result:
  Sources found:
  Sinks found:
    <Descriptors: api_sink: Landroid/support/v4/app/FragmentActivity;.startActivityForResult:(Landroid/content/Intent;I)V 1>
    <Descriptors: api_sink: Landroid/support/v4/app/FragmentActivity;.startActivityForResult:(Landroid/content/Intent;I)V 1>
  Discovered taint paths are listed below:
