2018-15-15 17:15:06.150 [main] INFO  com.horndroid.Main - Starting fsHornDroid...
2018-15-15 17:15:06.153 [main] INFO  com.horndroid.Main - Flow Sensitive Analysis on 64 bitvectors size
2018-15-15 17:15:06.154 [main] DEBUG com.horndroid.executors.HorndroidExecutor - Parsing sources and sinks...
2018-15-15 17:15:06.448 [main] DEBUG com.horndroid.executors.HorndroidExecutor - done in 294 milliseconds
2018-15-15 17:15:06.449 [main] DEBUG com.horndroid.executors.HorndroidExecutor - Collecting apk files to process...
2018-15-15 17:15:06.449 [main] DEBUG com.horndroid.executors.HorndroidExecutor - done in 0 milliseconds
2018-15-15 17:15:06.477 [main] INFO  com.horndroid.executors.HorndroidExecutor - Analysing InternalToExternalStorage-InformationLeak-Lean-benign.apk
2018-15-15 17:15:06.497 [main] DEBUG com.horndroid.executors.HorndroidExecutor - Parsing entry points...
2018-15-15 17:15:06.500 [main] DEBUG com.horndroid.executors.HorndroidExecutor - done in 3 milliseconds
2018-15-15 17:15:06.501 [main] DEBUG com.horndroid.executors.HorndroidExecutor - Parsing callbacks and disabled activities...
2018-15-15 17:15:06.501 [main] INFO  com.horndroid.util.SourceSinkParser - Running apktool to obtain manifest xml and layout files
2018-15-15 17:15:08.587 [main] INFO  com.horndroid.util.SourceSinkParser - Exit Code:0
2018-15-15 17:15:08.587 [main] INFO  com.horndroid.util.SourceSinkParser - STDOUT:I: Using Apktool 2.3.0 on InternalToExternalStorage-InformationLeak-Lean-benign.apk
2018-15-15 17:15:08.588 [main] INFO  com.horndroid.util.SourceSinkParser - STDOUT:I: Loading resource table...
2018-15-15 17:15:08.588 [main] INFO  com.horndroid.util.SourceSinkParser - STDOUT:I: Decoding AndroidManifest.xml with resources...
2018-15-15 17:15:08.588 [main] INFO  com.horndroid.util.SourceSinkParser - STDOUT:I: Loading resource table from file: /home/joydeep/.local/share/apktool/framework/1.apk
2018-15-15 17:15:08.588 [main] INFO  com.horndroid.util.SourceSinkParser - STDOUT:I: Regular manifest package...
2018-15-15 17:15:08.588 [main] INFO  com.horndroid.util.SourceSinkParser - STDOUT:I: Decoding file-resources...
2018-15-15 17:15:08.589 [main] INFO  com.horndroid.util.SourceSinkParser - STDOUT:I: Decoding values */* XMLs...
2018-15-15 17:15:08.589 [main] INFO  com.horndroid.util.SourceSinkParser - STDOUT:I: Copying raw classes.dex file...
2018-15-15 17:15:08.589 [main] INFO  com.horndroid.util.SourceSinkParser - STDOUT:I: Copying assets and libs...
2018-15-15 17:15:08.589 [main] INFO  com.horndroid.util.SourceSinkParser - STDOUT:I: Copying unknown files...
2018-15-15 17:15:08.589 [main] INFO  com.horndroid.util.SourceSinkParser - STDOUT:I: Copying original files...
2018-15-15 17:15:08.821 [main] DEBUG com.horndroid.executors.HorndroidExecutor - ...done in 2319 milliseconds
2018-15-15 17:15:08.821 [main] DEBUG com.horndroid.executors.HorndroidExecutor - Sorting classes...
2018-15-15 17:15:08.843 [main] DEBUG com.horndroid.executors.HorndroidExecutor - done in 22 milliseconds
2018-15-15 17:15:08.844 [main] DEBUG com.horndroid.executors.HorndroidExecutor - Collecting data for Horn Clause generation...
2018-15-15 17:15:08.938 [main] DEBUG com.horndroid.executors.HorndroidExecutor - done in 94 milliseconds
2018-15-15 17:15:08.938 [main] DEBUG com.horndroid.executors.HorndroidExecutor - Generating Horn Clauses..
2018-15-15 17:15:08.938 [main] INFO  com.horndroid.analysis.Analysis - Ready to start generating Horn Clauses:
2018-15-15 17:15:08.939 [main] INFO  com.horndroid.analysis.Analysis - Number of classes in APK : 4
2018-15-15 17:15:08.939 [main] INFO  com.horndroid.analysis.Analysis - Number of methods in APK: 12
2018-15-15 17:15:08.939 [main] INFO  com.horndroid.analysis.Analysis - Number of instructions in APK: 265
2018-15-15 17:15:08.940 [main] INFO  com.horndroid.analysis.Analysis - Number of instances in APK: 41
2018-15-15 17:15:08.952 [main] INFO  com.horndroid.analysis.Analysis - Number of sources: 13
2018-15-15 17:15:08.953 [main] INFO  com.horndroid.analysis.Analysis - Number of sinks: 9
2018-15-15 17:15:08.953 [main] INFO  com.horndroid.analysis.Analysis - Number of classes : 4
2018-15-15 17:15:08.953 [main] INFO  com.horndroid.analysis.Analysis - Number of methods: 12
2018-15-15 17:15:08.953 [main] INFO  com.horndroid.analysis.Analysis - Number of instructions: 265
2018-15-15 17:15:08.953 [main] INFO  com.horndroid.analysis.Analysis - Number of instances : 41
2018-15-15 17:15:09.108 [main] DEBUG com.horndroid.executors.HorndroidExecutor - ...done in 170 milliseconds
2018-15-15 17:15:09.109 [main] DEBUG com.horndroid.executors.HorndroidExecutor - Waiting for treads to terminate...
2018-15-15 17:15:09.109 [main] DEBUG com.horndroid.executors.HorndroidExecutor - ...done in 0 milliseconds
2018-15-15 17:15:09.109 [main] DEBUG com.horndroid.executors.HorndroidExecutor - Executing all queries...
2018-15-15 17:15:09.110 [main] INFO  com.horndroid.z3.FSEngine - Number of the generated queries: 32
2018-15-15 17:15:09.434 [main] INFO  com.horndroid.z3.FSEngine - 1 Test if register 14 leaks at line 111 in method onHandleIntent(Landroid/content/Intent;)V of the class Ledu/ksu/cs/benign/DownloadService; to the sink d(Ljava/lang/String;Ljava/lang/String;)I:NO LEAK
2018-15-15 17:15:09.780 [main] INFO  com.horndroid.z3.FSEngine - 2 [REF] Test if register 14 leaks at line 111 in method onHandleIntent(Landroid/content/Intent;)V of the class Ledu/ksu/cs/benign/DownloadService; to the sink d(Ljava/lang/String;Ljava/lang/String;)I:NO LEAK
2018-15-15 17:15:10.019 [main] INFO  com.horndroid.z3.FSEngine - 3 Test if register 13 leaks at line 111 in method onHandleIntent(Landroid/content/Intent;)V of the class Ledu/ksu/cs/benign/DownloadService; to the sink d(Ljava/lang/String;Ljava/lang/String;)I:NO LEAK
2018-15-15 17:15:10.258 [main] INFO  com.horndroid.z3.FSEngine - 4 [REF] Test if register 13 leaks at line 111 in method onHandleIntent(Landroid/content/Intent;)V of the class Ledu/ksu/cs/benign/DownloadService; to the sink d(Ljava/lang/String;Ljava/lang/String;)I:NO LEAK
2018-15-15 17:15:10.494 [main] INFO  com.horndroid.z3.FSEngine - 5 Test if register 3 leaks at line 114 in method onHandleIntent(Landroid/content/Intent;)V of the class Ledu/ksu/cs/benign/DownloadService; to the sink printStackTrace()V:NO LEAK
2018-15-15 17:15:10.731 [main] INFO  com.horndroid.z3.FSEngine - 6 [REF] Test if register 3 leaks at line 114 in method onHandleIntent(Landroid/content/Intent;)V of the class Ledu/ksu/cs/benign/DownloadService; to the sink printStackTrace()V:NO LEAK
2018-15-15 17:15:10.970 [main] INFO  com.horndroid.z3.FSEngine - 7 Test if register 0 leaks at line 134 in method onHandleIntent(Landroid/content/Intent;)V of the class Ledu/ksu/cs/benign/DownloadService; to the sink d(Ljava/lang/String;Ljava/lang/String;)I:NO LEAK
2018-15-15 17:15:11.207 [main] INFO  com.horndroid.z3.FSEngine - 8 [REF] Test if register 0 leaks at line 134 in method onHandleIntent(Landroid/content/Intent;)V of the class Ledu/ksu/cs/benign/DownloadService; to the sink d(Ljava/lang/String;Ljava/lang/String;)I:NO LEAK
2018-15-15 17:15:11.441 [main] INFO  com.horndroid.z3.FSEngine - 9 Test if register 13 leaks at line 134 in method onHandleIntent(Landroid/content/Intent;)V of the class Ledu/ksu/cs/benign/DownloadService; to the sink d(Ljava/lang/String;Ljava/lang/String;)I:NO LEAK
2018-15-15 17:15:11.666 [main] INFO  com.horndroid.z3.FSEngine - 10 [REF] Test if register 13 leaks at line 134 in method onHandleIntent(Landroid/content/Intent;)V of the class Ledu/ksu/cs/benign/DownloadService; to the sink d(Ljava/lang/String;Ljava/lang/String;)I:NO LEAK
2018-15-15 17:15:11.902 [main] INFO  com.horndroid.z3.FSEngine - 11 Test if register 13 leaks at line 162 in method onHandleIntent(Landroid/content/Intent;)V of the class Ledu/ksu/cs/benign/DownloadService; to the sink write([B)V:NO LEAK
2018-15-15 17:15:12.137 [main] INFO  com.horndroid.z3.FSEngine - 12 [REF] Test if register 13 leaks at line 162 in method onHandleIntent(Landroid/content/Intent;)V of the class Ledu/ksu/cs/benign/DownloadService; to the sink write([B)V:NO LEAK
2018-15-15 17:15:12.374 [main] INFO  com.horndroid.z3.FSEngine - 13 Test if register 11 leaks at line 162 in method onHandleIntent(Landroid/content/Intent;)V of the class Ledu/ksu/cs/benign/DownloadService; to the sink write([B)V:NO LEAK
2018-15-15 17:15:12.607 [main] INFO  com.horndroid.z3.FSEngine - 14 [REF] Test if register 11 leaks at line 162 in method onHandleIntent(Landroid/content/Intent;)V of the class Ledu/ksu/cs/benign/DownloadService; to the sink write([B)V:NO LEAK
2018-15-15 17:15:12.843 [main] INFO  com.horndroid.z3.FSEngine - 15 Test if register 14 leaks at line 212 in method onHandleIntent(Landroid/content/Intent;)V of the class Ledu/ksu/cs/benign/DownloadService; to the sink d(Ljava/lang/String;Ljava/lang/String;)I:NO LEAK
2018-15-15 17:15:13.082 [main] INFO  com.horndroid.z3.FSEngine - 16 [REF] Test if register 14 leaks at line 212 in method onHandleIntent(Landroid/content/Intent;)V of the class Ledu/ksu/cs/benign/DownloadService; to the sink d(Ljava/lang/String;Ljava/lang/String;)I:NO LEAK
2018-15-15 17:15:13.319 [main] INFO  com.horndroid.z3.FSEngine - 17 Test if register 13 leaks at line 212 in method onHandleIntent(Landroid/content/Intent;)V of the class Ledu/ksu/cs/benign/DownloadService; to the sink d(Ljava/lang/String;Ljava/lang/String;)I:NO LEAK
2018-15-15 17:15:13.552 [main] INFO  com.horndroid.z3.FSEngine - 18 [REF] Test if register 13 leaks at line 212 in method onHandleIntent(Landroid/content/Intent;)V of the class Ledu/ksu/cs/benign/DownloadService; to the sink d(Ljava/lang/String;Ljava/lang/String;)I:NO LEAK
2018-15-15 17:15:13.789 [main] INFO  com.horndroid.z3.FSEngine - 19 Test if register 6 leaks at line 241 in method onHandleIntent(Landroid/content/Intent;)V of the class Ledu/ksu/cs/benign/DownloadService; to the sink setAction(Ljava/lang/String;)Landroid/content/Intent;:NO LEAK
2018-15-15 17:15:14.035 [main] INFO  com.horndroid.z3.FSEngine - 20 [REF] Test if register 6 leaks at line 241 in method onHandleIntent(Landroid/content/Intent;)V of the class Ledu/ksu/cs/benign/DownloadService; to the sink setAction(Ljava/lang/String;)Landroid/content/Intent;:NO LEAK
2018-15-15 17:15:14.272 [main] INFO  com.horndroid.z3.FSEngine - 21 Test if register 8 leaks at line 241 in method onHandleIntent(Landroid/content/Intent;)V of the class Ledu/ksu/cs/benign/DownloadService; to the sink setAction(Ljava/lang/String;)Landroid/content/Intent;:NO LEAK
2018-15-15 17:15:14.513 [main] INFO  com.horndroid.z3.FSEngine - 22 [REF] Test if register 8 leaks at line 241 in method onHandleIntent(Landroid/content/Intent;)V of the class Ledu/ksu/cs/benign/DownloadService; to the sink setAction(Ljava/lang/String;)Landroid/content/Intent;:NO LEAK
2018-15-15 17:15:14.754 [main] INFO  com.horndroid.z3.FSEngine - 23 Test if register 4 leaks at line 25 in method onClick(Landroid/view/View;)V of the class Ledu/ksu/cs/benign/MainActivity$1; to the sink write([B)V:NO LEAK
2018-15-15 17:15:14.987 [main] INFO  com.horndroid.z3.FSEngine - 24 [REF] Test if register 4 leaks at line 25 in method onClick(Landroid/view/View;)V of the class Ledu/ksu/cs/benign/MainActivity$1; to the sink write([B)V:NO LEAK
2018-15-15 17:15:15.223 [main] INFO  com.horndroid.z3.FSEngine - 25 Test if register 2 leaks at line 25 in method onClick(Landroid/view/View;)V of the class Ledu/ksu/cs/benign/MainActivity$1; to the sink write([B)V:NO LEAK
2018-15-15 17:15:15.457 [main] INFO  com.horndroid.z3.FSEngine - 26 [REF] Test if register 2 leaks at line 25 in method onClick(Landroid/view/View;)V of the class Ledu/ksu/cs/benign/MainActivity$1; to the sink write([B)V:NO LEAK
2018-15-15 17:15:15.686 [main] INFO  com.horndroid.z3.FSEngine - 27 Test if register 5 leaks at line 49 in method onClick(Landroid/view/View;)V of the class Ledu/ksu/cs/benign/MainActivity$1; to the sink d(Ljava/lang/String;Ljava/lang/String;)I:NO LEAK
2018-15-15 17:15:15.982 [main] INFO  com.horndroid.z3.FSEngine - 28 [REF] Test if register 5 leaks at line 49 in method onClick(Landroid/view/View;)V of the class Ledu/ksu/cs/benign/MainActivity$1; to the sink d(Ljava/lang/String;Ljava/lang/String;)I:NO LEAK
2018-15-15 17:15:16.345 [main] INFO  com.horndroid.z3.FSEngine - 29 Test if register 4 leaks at line 49 in method onClick(Landroid/view/View;)V of the class Ledu/ksu/cs/benign/MainActivity$1; to the sink d(Ljava/lang/String;Ljava/lang/String;)I:NO LEAK
2018-15-15 17:15:16.675 [main] INFO  com.horndroid.z3.FSEngine - 30 [REF] Test if register 4 leaks at line 49 in method onClick(Landroid/view/View;)V of the class Ledu/ksu/cs/benign/MainActivity$1; to the sink d(Ljava/lang/String;Ljava/lang/String;)I:NO LEAK
2018-15-15 17:15:16.911 [main] INFO  com.horndroid.z3.FSEngine - 31 Test if register 1 leaks at line 52 in method onClick(Landroid/view/View;)V of the class Ledu/ksu/cs/benign/MainActivity$1; to the sink printStackTrace()V:NO LEAK
2018-15-15 17:15:17.145 [main] INFO  com.horndroid.z3.FSEngine - 32 [REF] Test if register 1 leaks at line 52 in method onClick(Landroid/view/View;)V of the class Ledu/ksu/cs/benign/MainActivity$1; to the sink printStackTrace()V:NO LEAK
2018-15-15 17:15:17.146 [main] DEBUG com.horndroid.executors.HorndroidExecutor - ...done in 8036 milliseconds
