{
  "score": 5.0,
  "md5hash": "27b26769d2ab75c11896ac6b1323192d",
  "results": [{
    "desc": "application is debuggable",
    "sourceStmt": "",
    "custom": "",
    "vulnKind": 3,
    "destMethod": "",
    "paths": [],
    "destStmt": "",
    "sourceMethod": ""
  }]
}