{
  "score": 5.0,
  "md5hash": "eb2916688c049be1a3e458fb0fd22afc",
  "results": [{
    "desc": "application is debuggable",
    "sourceStmt": "",
    "custom": "",
    "vulnKind": 3,
    "destMethod": "",
    "paths": [],
    "destStmt": "",
    "sourceMethod": ""
  }]
}