2018-09-15 17:09:11.796 [main] INFO  com.horndroid.Main - Starting fsHornDroid...
2018-09-15 17:09:11.800 [main] INFO  com.horndroid.Main - Flow Sensitive Analysis on 64 bitvectors size
2018-09-15 17:09:11.801 [main] DEBUG com.horndroid.executors.HorndroidExecutor - Parsing sources and sinks...
2018-09-15 17:09:12.157 [main] DEBUG com.horndroid.executors.HorndroidExecutor - done in 355 milliseconds
2018-09-15 17:09:12.157 [main] DEBUG com.horndroid.executors.HorndroidExecutor - Collecting apk files to process...
2018-09-15 17:09:12.157 [main] DEBUG com.horndroid.executors.HorndroidExecutor - done in 0 milliseconds
2018-09-15 17:09:12.196 [main] INFO  com.horndroid.executors.HorndroidExecutor - Analysing ExternalStorage-DataInjection-Lean-benign.apk
2018-09-15 17:09:12.224 [main] DEBUG com.horndroid.executors.HorndroidExecutor - Parsing entry points...
2018-09-15 17:09:12.228 [main] DEBUG com.horndroid.executors.HorndroidExecutor - done in 4 milliseconds
2018-09-15 17:09:12.228 [main] DEBUG com.horndroid.executors.HorndroidExecutor - Parsing callbacks and disabled activities...
2018-09-15 17:09:12.228 [main] INFO  com.horndroid.util.SourceSinkParser - Running apktool to obtain manifest xml and layout files
2018-09-15 17:09:14.323 [main] INFO  com.horndroid.util.SourceSinkParser - Exit Code:0
2018-09-15 17:09:14.334 [main] INFO  com.horndroid.util.SourceSinkParser - STDOUT:I: Using Apktool 2.3.0 on ExternalStorage-DataInjection-Lean-benign.apk
2018-09-15 17:09:14.334 [main] INFO  com.horndroid.util.SourceSinkParser - STDOUT:I: Loading resource table...
2018-09-15 17:09:14.335 [main] INFO  com.horndroid.util.SourceSinkParser - STDOUT:I: Decoding AndroidManifest.xml with resources...
2018-09-15 17:09:14.335 [main] INFO  com.horndroid.util.SourceSinkParser - STDOUT:I: Loading resource table from file: /home/joydeep/.local/share/apktool/framework/1.apk
2018-09-15 17:09:14.335 [main] INFO  com.horndroid.util.SourceSinkParser - STDOUT:I: Regular manifest package...
2018-09-15 17:09:14.335 [main] INFO  com.horndroid.util.SourceSinkParser - STDOUT:I: Decoding file-resources...
2018-09-15 17:09:14.335 [main] INFO  com.horndroid.util.SourceSinkParser - STDOUT:I: Decoding values */* XMLs...
2018-09-15 17:09:14.335 [main] INFO  com.horndroid.util.SourceSinkParser - STDOUT:I: Copying raw classes.dex file...
2018-09-15 17:09:14.335 [main] INFO  com.horndroid.util.SourceSinkParser - STDOUT:I: Copying assets and libs...
2018-09-15 17:09:14.335 [main] INFO  com.horndroid.util.SourceSinkParser - STDOUT:I: Copying unknown files...
2018-09-15 17:09:14.336 [main] INFO  com.horndroid.util.SourceSinkParser - STDOUT:I: Copying original files...
2018-09-15 17:09:14.539 [main] DEBUG com.horndroid.executors.HorndroidExecutor - ...done in 2311 milliseconds
2018-09-15 17:09:14.540 [main] DEBUG com.horndroid.executors.HorndroidExecutor - Sorting classes...
2018-09-15 17:09:14.557 [main] DEBUG com.horndroid.executors.HorndroidExecutor - done in 17 milliseconds
2018-09-15 17:09:14.557 [main] DEBUG com.horndroid.executors.HorndroidExecutor - Collecting data for Horn Clause generation...
2018-09-15 17:09:14.641 [main] DEBUG com.horndroid.executors.HorndroidExecutor - done in 84 milliseconds
2018-09-15 17:09:14.642 [main] DEBUG com.horndroid.executors.HorndroidExecutor - Generating Horn Clauses..
2018-09-15 17:09:14.642 [main] INFO  com.horndroid.analysis.Analysis - Ready to start generating Horn Clauses:
2018-09-15 17:09:14.643 [main] INFO  com.horndroid.analysis.Analysis - Number of classes in APK : 2
2018-09-15 17:09:14.643 [main] INFO  com.horndroid.analysis.Analysis - Number of methods in APK: 6
2018-09-15 17:09:14.643 [main] INFO  com.horndroid.analysis.Analysis - Number of instructions in APK: 123
2018-09-15 17:09:14.643 [main] INFO  com.horndroid.analysis.Analysis - Number of instances in APK: 15
2018-09-15 17:09:14.652 [main] INFO  com.horndroid.analysis.Analysis - Number of sources: 11
2018-09-15 17:09:14.652 [main] INFO  com.horndroid.analysis.Analysis - Number of sinks: 5
2018-09-15 17:09:14.652 [main] INFO  com.horndroid.analysis.Analysis - Number of classes : 2
2018-09-15 17:09:14.652 [main] INFO  com.horndroid.analysis.Analysis - Number of methods: 6
2018-09-15 17:09:14.652 [main] INFO  com.horndroid.analysis.Analysis - Number of instructions: 123
2018-09-15 17:09:14.652 [main] INFO  com.horndroid.analysis.Analysis - Number of instances : 15
2018-09-15 17:09:14.735 [main] DEBUG com.horndroid.executors.HorndroidExecutor - ...done in 93 milliseconds
2018-09-15 17:09:14.735 [main] DEBUG com.horndroid.executors.HorndroidExecutor - Waiting for treads to terminate...
2018-09-15 17:09:14.735 [main] DEBUG com.horndroid.executors.HorndroidExecutor - ...done in 0 milliseconds
2018-09-15 17:09:14.735 [main] DEBUG com.horndroid.executors.HorndroidExecutor - Executing all queries...
2018-09-15 17:09:14.736 [main] INFO  com.horndroid.z3.FSEngine - Number of the generated queries: 4
2018-09-15 17:09:14.945 [main] INFO  com.horndroid.z3.FSEngine - 1 Test if register 7 leaks at line 49 in method onClick(Landroid/view/View;)V of the class Ledu/ksu/cs/benign/MainActivity$1; to the sink write([B)V:NO LEAK
2018-09-15 17:09:16.884 [main] INFO  com.horndroid.z3.FSEngine - 2 [REF] Test if register 7 leaks at line 49 in method onClick(Landroid/view/View;)V of the class Ledu/ksu/cs/benign/MainActivity$1; to the sink write([B)V:POTENTIAL LEAK
2018-09-15 17:09:17.070 [main] INFO  com.horndroid.z3.FSEngine - 3 Test if register 4 leaks at line 49 in method onClick(Landroid/view/View;)V of the class Ledu/ksu/cs/benign/MainActivity$1; to the sink write([B)V:NO LEAK
2018-09-15 17:09:21.079 [main] INFO  com.horndroid.z3.FSEngine - 4 [REF] Test if register 4 leaks at line 49 in method onClick(Landroid/view/View;)V of the class Ledu/ksu/cs/benign/MainActivity$1; to the sink write([B)V:POTENTIAL LEAK
2018-09-15 17:09:21.080 [main] DEBUG com.horndroid.executors.HorndroidExecutor - ...done in 6344 milliseconds
